PWD /home/makar/repos/gramauto
INPUT /usr/share/texmf-dist/web2c/texmf.cnf
INPUT /var/lib/texmf/web2c/pdftex/pdflatex.fmt
INPUT /home/makar/repos/gramauto/slide39_post.tex
OUTPUT /home/makar/repos/gramauto/slide39_post.log
INPUT /usr/share/texmf-dist/tex/latex/base/article.cls
INPUT /usr/share/texmf-dist/tex/latex/base/article.cls
INPUT /usr/share/texmf-dist/tex/latex/base/article.cls
INPUT /usr/share/texmf-dist/tex/latex/base/article.cls
INPUT /usr/share/texmf-dist/tex/latex/base/article.cls
INPUT /usr/share/texmf-dist/tex/latex/base/article.cls
INPUT /usr/share/texmf-dist/tex/latex/base/article.cls
INPUT /usr/share/texmf-dist/tex/latex/base/article.cls
INPUT /usr/share/texmf-dist/tex/latex/base/article.cls
INPUT /usr/share/texmf-dist/tex/latex/base/article.cls
INPUT /usr/share/texmf-dist/tex/latex/base/size10.clo
INPUT /usr/share/texmf-dist/tex/latex/base/size10.clo
INPUT /usr/share/texmf-dist/tex/latex/base/size10.clo
INPUT /usr/share/texmf-dist/tex/latex/base/size10.clo
INPUT /usr/share/texmf-dist/tex/latex/geometry/geometry.sty
INPUT /usr/share/texmf-dist/tex/latex/geometry/geometry.sty
INPUT /usr/share/texmf-dist/tex/latex/geometry/geometry.sty
INPUT /usr/share/texmf-dist/tex/latex/geometry/geometry.sty
INPUT /usr/share/texmf-dist/tex/latex/geometry/geometry.sty
INPUT /usr/share/texmf-dist/tex/latex/geometry/geometry.sty
INPUT /usr/share/texmf-dist/tex/latex/geometry/geometry.sty
INPUT /usr/share/texmf-dist/tex/latex/geometry/geometry.sty
INPUT /usr/share/texmf-dist/tex/latex/geometry/geometry.sty
INPUT /usr/share/texmf-dist/tex/latex/geometry/geometry.sty
INPUT /usr/share/texmf-dist/tex/latex/graphics/keyval.sty
INPUT /usr/share/texmf-dist/tex/latex/graphics/keyval.sty
INPUT /usr/share/texmf-dist/tex/latex/graphics/keyval.sty
INPUT /usr/share/texmf-dist/tex/latex/graphics/keyval.sty
INPUT /usr/share/texmf-dist/tex/latex/graphics/keyval.sty
INPUT /usr/share/texmf-dist/tex/latex/graphics/keyval.sty
INPUT /usr/share/texmf-dist/tex/latex/graphics/keyval.sty
INPUT /usr/share/texmf-dist/tex/latex/graphics/keyval.sty
INPUT /usr/share/texmf-dist/tex/latex/graphics/keyval.sty
INPUT /usr/share/texmf-dist/tex/latex/graphics/keyval.sty
INPUT /usr/share/texmf-dist/tex/generic/iftex/ifvtex.sty
INPUT /usr/share/texmf-dist/tex/generic/iftex/ifvtex.sty
INPUT /usr/share/texmf-dist/tex/generic/iftex/ifvtex.sty
INPUT /usr/share/texmf-dist/tex/generic/iftex/ifvtex.sty
INPUT /usr/share/texmf-dist/tex/generic/iftex/ifvtex.sty
INPUT /usr/share/texmf-dist/tex/generic/iftex/ifvtex.sty
INPUT /usr/share/texmf-dist/tex/generic/iftex/ifvtex.sty
INPUT /usr/share/texmf-dist/tex/generic/iftex/ifvtex.sty
INPUT /usr/share/texmf-dist/tex/generic/iftex/ifvtex.sty
INPUT /usr/share/texmf-dist/tex/generic/iftex/ifvtex.sty
INPUT /usr/share/texmf-dist/tex/generic/iftex/iftex.sty
INPUT /usr/share/texmf-dist/tex/generic/iftex/iftex.sty
INPUT /usr/share/texmf-dist/tex/generic/iftex/iftex.sty
INPUT /usr/share/texmf-dist/tex/generic/iftex/iftex.sty
INPUT /usr/share/texmf-dist/tex/generic/iftex/iftex.sty
INPUT /usr/share/texmf-dist/tex/generic/iftex/iftex.sty
INPUT /usr/share/texmf-dist/tex/generic/iftex/iftex.sty
INPUT /usr/share/texmf-dist/tex/generic/iftex/iftex.sty
INPUT /usr/share/texmf-dist/tex/generic/iftex/iftex.sty
INPUT /usr/share/texmf-dist/tex/generic/iftex/iftex.sty
INPUT /usr/share/texmf-dist/tex/latex/base/inputenc.sty
INPUT /usr/share/texmf-dist/tex/latex/base/inputenc.sty
INPUT /usr/share/texmf-dist/tex/latex/base/inputenc.sty
INPUT /usr/share/texmf-dist/tex/latex/base/inputenc.sty
INPUT /usr/share/texmf-dist/tex/latex/base/inputenc.sty
INPUT /usr/share/texmf-dist/tex/latex/base/inputenc.sty
INPUT /usr/share/texmf-dist/tex/latex/base/inputenc.sty
INPUT /usr/share/texmf-dist/tex/latex/base/inputenc.sty
INPUT /usr/share/texmf-dist/tex/latex/base/inputenc.sty
INPUT /usr/share/texmf-dist/tex/latex/base/inputenc.sty
INPUT /usr/share/texmf-dist/tex/latex/base/fontenc.sty
INPUT /usr/share/texmf-dist/tex/latex/base/fontenc.sty
INPUT /usr/share/texmf-dist/tex/latex/base/fontenc.sty
INPUT /usr/share/texmf-dist/tex/latex/base/fontenc.sty
INPUT /usr/share/texmf-dist/tex/latex/base/fontenc.sty
INPUT /usr/share/texmf-dist/tex/latex/base/fontenc.sty
INPUT /usr/share/texmf-dist/tex/latex/base/fontenc.sty
INPUT /usr/share/texmf-dist/tex/latex/base/fontenc.sty
INPUT /usr/share/texmf-dist/tex/latex/base/fontenc.sty
INPUT /usr/share/texmf-dist/tex/latex/base/fontenc.sty
INPUT /usr/share/texmf-dist/tex/latex/cyrillic/t2aenc.def
INPUT /usr/share/texmf-dist/tex/latex/cyrillic/t2aenc.def
INPUT /usr/share/texmf-dist/tex/latex/cyrillic/t2aenc.def
INPUT /usr/share/texmf-dist/tex/latex/cyrillic/t2aenc.def
INPUT /usr/share/texmf-dist/tex/latex/base/t2aenc.dfu
INPUT /usr/share/texmf-dist/tex/latex/base/t2aenc.dfu
INPUT /usr/share/texmf-dist/tex/latex/base/t2aenc.dfu
INPUT /usr/share/texmf-dist/tex/latex/base/t2aenc.dfu
INPUT /usr/share/texmf-dist/tex/latex/cyrillic/t2acmr.fd
INPUT /usr/share/texmf-dist/tex/latex/cyrillic/t2acmr.fd
INPUT /usr/share/texmf-dist/tex/latex/cyrillic/t2acmr.fd
INPUT /usr/share/texmf-dist/tex/latex/cyrillic/t2acmr.fd
INPUT /usr/share/texmf-dist/fonts/map/fontname/texfonts.map
INPUT /home/makar/.texlive/texmf-var/fonts/tfm/lh/lh-t2a/larm1000.tfm
INPUT /usr/share/texmf-dist/tex/generic/babel/babel.sty
INPUT /usr/share/texmf-dist/tex/generic/babel/babel.sty
INPUT /usr/share/texmf-dist/tex/generic/babel/babel.sty
INPUT /usr/share/texmf-dist/tex/generic/babel/babel.sty
INPUT /usr/share/texmf-dist/tex/generic/babel/babel.sty
INPUT /usr/share/texmf-dist/tex/generic/babel/babel.sty
INPUT /usr/share/texmf-dist/tex/generic/babel/babel.sty
INPUT /usr/share/texmf-dist/tex/generic/babel/babel.sty
INPUT /usr/share/texmf-dist/tex/generic/babel/babel.sty
INPUT /usr/share/texmf-dist/tex/generic/babel/babel.sty
INPUT /usr/share/texmf-dist/tex/generic/babel/babel.def
INPUT /usr/share/texmf-dist/tex/generic/babel/txtbabel.def
INPUT /usr/share/texmf-dist/tex/generic/babel-russian/russianb.ldf
INPUT /usr/share/texmf-dist/tex/generic/babel-russian/russianb.ldf
INPUT /usr/share/texmf-dist/tex/generic/babel-russian/russianb.ldf
INPUT /usr/share/texmf-dist/tex/generic/babel-russian/russianb.ldf
INPUT /usr/share/texmf-dist/tex/latex/tools/indentfirst.sty
INPUT /usr/share/texmf-dist/tex/latex/tools/indentfirst.sty
INPUT /usr/share/texmf-dist/tex/latex/tools/indentfirst.sty
INPUT /usr/share/texmf-dist/tex/latex/tools/indentfirst.sty
INPUT /usr/share/texmf-dist/tex/latex/tools/indentfirst.sty
INPUT /usr/share/texmf-dist/tex/latex/tools/indentfirst.sty
INPUT /usr/share/texmf-dist/tex/latex/tools/indentfirst.sty
INPUT /usr/share/texmf-dist/tex/latex/tools/indentfirst.sty
INPUT /usr/share/texmf-dist/tex/latex/tools/indentfirst.sty
INPUT /usr/share/texmf-dist/tex/latex/tools/indentfirst.sty
INPUT /usr/share/texmf-dist/tex/latex/xcolor/xcolor.sty
INPUT /usr/share/texmf-dist/tex/latex/xcolor/xcolor.sty
INPUT /usr/share/texmf-dist/tex/latex/xcolor/xcolor.sty
INPUT /usr/share/texmf-dist/tex/latex/xcolor/xcolor.sty
INPUT /usr/share/texmf-dist/tex/latex/xcolor/xcolor.sty
INPUT /usr/share/texmf-dist/tex/latex/xcolor/xcolor.sty
INPUT /usr/share/texmf-dist/tex/latex/xcolor/xcolor.sty
INPUT /usr/share/texmf-dist/tex/latex/xcolor/xcolor.sty
INPUT /usr/share/texmf-dist/tex/latex/xcolor/xcolor.sty
INPUT /usr/share/texmf-dist/tex/latex/xcolor/xcolor.sty
INPUT /usr/share/texmf-dist/tex/latex/graphics-cfg/color.cfg
INPUT /usr/share/texmf-dist/tex/latex/graphics-cfg/color.cfg
INPUT /usr/share/texmf-dist/tex/latex/graphics-cfg/color.cfg
INPUT /usr/share/texmf-dist/tex/latex/graphics-cfg/color.cfg
INPUT /usr/share/texmf-dist/tex/latex/graphics-def/pdftex.def
INPUT /usr/share/texmf-dist/tex/latex/graphics-def/pdftex.def
INPUT /usr/share/texmf-dist/tex/latex/graphics-def/pdftex.def
INPUT /usr/share/texmf-dist/tex/latex/graphics-def/pdftex.def
INPUT /usr/share/texmf-dist/tex/latex/graphics/dvipsnam.def
INPUT /usr/share/texmf-dist/tex/latex/graphics/dvipsnam.def
INPUT /usr/share/texmf-dist/tex/latex/graphics/dvipsnam.def
INPUT /usr/share/texmf-dist/tex/latex/graphics/dvipsnam.def
INPUT /usr/share/texmf-dist/tex/latex/hyperref/hyperref.sty
INPUT /usr/share/texmf-dist/tex/latex/hyperref/hyperref.sty
INPUT /usr/share/texmf-dist/tex/latex/hyperref/hyperref.sty
INPUT /usr/share/texmf-dist/tex/latex/hyperref/hyperref.sty
INPUT /usr/share/texmf-dist/tex/latex/hyperref/hyperref.sty
INPUT /usr/share/texmf-dist/tex/latex/hyperref/hyperref.sty
INPUT /usr/share/texmf-dist/tex/latex/hyperref/hyperref.sty
INPUT /usr/share/texmf-dist/tex/latex/hyperref/hyperref.sty
INPUT /usr/share/texmf-dist/tex/latex/hyperref/hyperref.sty
INPUT /usr/share/texmf-dist/tex/latex/hyperref/hyperref.sty
INPUT /usr/share/texmf-dist/tex/generic/ltxcmds/ltxcmds.sty
INPUT /usr/share/texmf-dist/tex/generic/ltxcmds/ltxcmds.sty
INPUT /usr/share/texmf-dist/tex/generic/ltxcmds/ltxcmds.sty
INPUT /usr/share/texmf-dist/tex/generic/ltxcmds/ltxcmds.sty
INPUT /usr/share/texmf-dist/tex/generic/ltxcmds/ltxcmds.sty
INPUT /usr/share/texmf-dist/tex/generic/ltxcmds/ltxcmds.sty
INPUT /usr/share/texmf-dist/tex/generic/ltxcmds/ltxcmds.sty
INPUT /usr/share/texmf-dist/tex/generic/ltxcmds/ltxcmds.sty
INPUT /usr/share/texmf-dist/tex/generic/ltxcmds/ltxcmds.sty
INPUT /usr/share/texmf-dist/tex/generic/ltxcmds/ltxcmds.sty
INPUT /usr/share/texmf-dist/tex/generic/pdftexcmds/pdftexcmds.sty
INPUT /usr/share/texmf-dist/tex/generic/pdftexcmds/pdftexcmds.sty
INPUT /usr/share/texmf-dist/tex/generic/pdftexcmds/pdftexcmds.sty
INPUT /usr/share/texmf-dist/tex/generic/pdftexcmds/pdftexcmds.sty
INPUT /usr/share/texmf-dist/tex/generic/pdftexcmds/pdftexcmds.sty
INPUT /usr/share/texmf-dist/tex/generic/pdftexcmds/pdftexcmds.sty
INPUT /usr/share/texmf-dist/tex/generic/pdftexcmds/pdftexcmds.sty
INPUT /usr/share/texmf-dist/tex/generic/pdftexcmds/pdftexcmds.sty
INPUT /usr/share/texmf-dist/tex/generic/pdftexcmds/pdftexcmds.sty
INPUT /usr/share/texmf-dist/tex/generic/pdftexcmds/pdftexcmds.sty
INPUT /usr/share/texmf-dist/tex/generic/infwarerr/infwarerr.sty
INPUT /usr/share/texmf-dist/tex/generic/infwarerr/infwarerr.sty
INPUT /usr/share/texmf-dist/tex/generic/infwarerr/infwarerr.sty
INPUT /usr/share/texmf-dist/tex/generic/infwarerr/infwarerr.sty
INPUT /usr/share/texmf-dist/tex/generic/infwarerr/infwarerr.sty
INPUT /usr/share/texmf-dist/tex/generic/infwarerr/infwarerr.sty
INPUT /usr/share/texmf-dist/tex/generic/infwarerr/infwarerr.sty
INPUT /usr/share/texmf-dist/tex/generic/infwarerr/infwarerr.sty
INPUT /usr/share/texmf-dist/tex/generic/infwarerr/infwarerr.sty
INPUT /usr/share/texmf-dist/tex/generic/infwarerr/infwarerr.sty
INPUT /usr/share/texmf-dist/tex/generic/kvsetkeys/kvsetkeys.sty
INPUT /usr/share/texmf-dist/tex/generic/kvsetkeys/kvsetkeys.sty
INPUT /usr/share/texmf-dist/tex/generic/kvsetkeys/kvsetkeys.sty
INPUT /usr/share/texmf-dist/tex/generic/kvsetkeys/kvsetkeys.sty
INPUT /usr/share/texmf-dist/tex/generic/kvsetkeys/kvsetkeys.sty
INPUT /usr/share/texmf-dist/tex/generic/kvsetkeys/kvsetkeys.sty
INPUT /usr/share/texmf-dist/tex/generic/kvsetkeys/kvsetkeys.sty
INPUT /usr/share/texmf-dist/tex/generic/kvsetkeys/kvsetkeys.sty
INPUT /usr/share/texmf-dist/tex/generic/kvsetkeys/kvsetkeys.sty
INPUT /usr/share/texmf-dist/tex/generic/kvsetkeys/kvsetkeys.sty
INPUT /usr/share/texmf-dist/tex/generic/kvdefinekeys/kvdefinekeys.sty
INPUT /usr/share/texmf-dist/tex/generic/kvdefinekeys/kvdefinekeys.sty
INPUT /usr/share/texmf-dist/tex/generic/kvdefinekeys/kvdefinekeys.sty
INPUT /usr/share/texmf-dist/tex/generic/kvdefinekeys/kvdefinekeys.sty
INPUT /usr/share/texmf-dist/tex/generic/kvdefinekeys/kvdefinekeys.sty
INPUT /usr/share/texmf-dist/tex/generic/kvdefinekeys/kvdefinekeys.sty
INPUT /usr/share/texmf-dist/tex/generic/kvdefinekeys/kvdefinekeys.sty
INPUT /usr/share/texmf-dist/tex/generic/kvdefinekeys/kvdefinekeys.sty
INPUT /usr/share/texmf-dist/tex/generic/kvdefinekeys/kvdefinekeys.sty
INPUT /usr/share/texmf-dist/tex/generic/kvdefinekeys/kvdefinekeys.sty
INPUT /usr/share/texmf-dist/tex/generic/pdfescape/pdfescape.sty
INPUT /usr/share/texmf-dist/tex/generic/pdfescape/pdfescape.sty
INPUT /usr/share/texmf-dist/tex/generic/pdfescape/pdfescape.sty
INPUT /usr/share/texmf-dist/tex/generic/pdfescape/pdfescape.sty
INPUT /usr/share/texmf-dist/tex/generic/pdfescape/pdfescape.sty
INPUT /usr/share/texmf-dist/tex/generic/pdfescape/pdfescape.sty
INPUT /usr/share/texmf-dist/tex/generic/pdfescape/pdfescape.sty
INPUT /usr/share/texmf-dist/tex/generic/pdfescape/pdfescape.sty
INPUT /usr/share/texmf-dist/tex/generic/pdfescape/pdfescape.sty
INPUT /usr/share/texmf-dist/tex/generic/pdfescape/pdfescape.sty
INPUT /usr/share/texmf-dist/tex/latex/hycolor/hycolor.sty
INPUT /usr/share/texmf-dist/tex/latex/hycolor/hycolor.sty
INPUT /usr/share/texmf-dist/tex/latex/hycolor/hycolor.sty
INPUT /usr/share/texmf-dist/tex/latex/hycolor/hycolor.sty
INPUT /usr/share/texmf-dist/tex/latex/hycolor/hycolor.sty
INPUT /usr/share/texmf-dist/tex/latex/hycolor/hycolor.sty
INPUT /usr/share/texmf-dist/tex/latex/hycolor/hycolor.sty
INPUT /usr/share/texmf-dist/tex/latex/hycolor/hycolor.sty
INPUT /usr/share/texmf-dist/tex/latex/hycolor/hycolor.sty
INPUT /usr/share/texmf-dist/tex/latex/hycolor/hycolor.sty
INPUT /usr/share/texmf-dist/tex/latex/letltxmacro/letltxmacro.sty
INPUT /usr/share/texmf-dist/tex/latex/letltxmacro/letltxmacro.sty
INPUT /usr/share/texmf-dist/tex/latex/letltxmacro/letltxmacro.sty
INPUT /usr/share/texmf-dist/tex/latex/letltxmacro/letltxmacro.sty
INPUT /usr/share/texmf-dist/tex/latex/letltxmacro/letltxmacro.sty
INPUT /usr/share/texmf-dist/tex/latex/letltxmacro/letltxmacro.sty
INPUT /usr/share/texmf-dist/tex/latex/letltxmacro/letltxmacro.sty
INPUT /usr/share/texmf-dist/tex/latex/letltxmacro/letltxmacro.sty
INPUT /usr/share/texmf-dist/tex/latex/letltxmacro/letltxmacro.sty
INPUT /usr/share/texmf-dist/tex/latex/letltxmacro/letltxmacro.sty
INPUT /usr/share/texmf-dist/tex/latex/auxhook/auxhook.sty
INPUT /usr/share/texmf-dist/tex/latex/auxhook/auxhook.sty
INPUT /usr/share/texmf-dist/tex/latex/auxhook/auxhook.sty
INPUT /usr/share/texmf-dist/tex/latex/auxhook/auxhook.sty
INPUT /usr/share/texmf-dist/tex/latex/auxhook/auxhook.sty
INPUT /usr/share/texmf-dist/tex/latex/auxhook/auxhook.sty
INPUT /usr/share/texmf-dist/tex/latex/auxhook/auxhook.sty
INPUT /usr/share/texmf-dist/tex/latex/auxhook/auxhook.sty
INPUT /usr/share/texmf-dist/tex/latex/auxhook/auxhook.sty
INPUT /usr/share/texmf-dist/tex/latex/auxhook/auxhook.sty
INPUT /usr/share/texmf-dist/tex/latex/kvoptions/kvoptions.sty
INPUT /usr/share/texmf-dist/tex/latex/kvoptions/kvoptions.sty
INPUT /usr/share/texmf-dist/tex/latex/kvoptions/kvoptions.sty
INPUT /usr/share/texmf-dist/tex/latex/kvoptions/kvoptions.sty
INPUT /usr/share/texmf-dist/tex/latex/kvoptions/kvoptions.sty
INPUT /usr/share/texmf-dist/tex/latex/kvoptions/kvoptions.sty
INPUT /usr/share/texmf-dist/tex/latex/kvoptions/kvoptions.sty
INPUT /usr/share/texmf-dist/tex/latex/kvoptions/kvoptions.sty
INPUT /usr/share/texmf-dist/tex/latex/kvoptions/kvoptions.sty
INPUT /usr/share/texmf-dist/tex/latex/kvoptions/kvoptions.sty
INPUT /usr/share/texmf-dist/tex/latex/hyperref/pd1enc.def
INPUT /usr/share/texmf-dist/tex/latex/hyperref/pd1enc.def
INPUT /usr/share/texmf-dist/tex/latex/hyperref/pd1enc.def
INPUT /usr/share/texmf-dist/tex/latex/hyperref/pd1enc.def
INPUT /usr/share/texmf-dist/tex/generic/intcalc/intcalc.sty
INPUT /usr/share/texmf-dist/tex/generic/intcalc/intcalc.sty
INPUT /usr/share/texmf-dist/tex/generic/intcalc/intcalc.sty
INPUT /usr/share/texmf-dist/tex/generic/intcalc/intcalc.sty
INPUT /usr/share/texmf-dist/tex/generic/intcalc/intcalc.sty
INPUT /usr/share/texmf-dist/tex/generic/intcalc/intcalc.sty
INPUT /usr/share/texmf-dist/tex/generic/intcalc/intcalc.sty
INPUT /usr/share/texmf-dist/tex/generic/intcalc/intcalc.sty
INPUT /usr/share/texmf-dist/tex/generic/intcalc/intcalc.sty
INPUT /usr/share/texmf-dist/tex/generic/intcalc/intcalc.sty
INPUT /usr/share/texmf-dist/tex/generic/etexcmds/etexcmds.sty
INPUT /usr/share/texmf-dist/tex/generic/etexcmds/etexcmds.sty
INPUT /usr/share/texmf-dist/tex/generic/etexcmds/etexcmds.sty
INPUT /usr/share/texmf-dist/tex/generic/etexcmds/etexcmds.sty
INPUT /usr/share/texmf-dist/tex/generic/etexcmds/etexcmds.sty
INPUT /usr/share/texmf-dist/tex/generic/etexcmds/etexcmds.sty
INPUT /usr/share/texmf-dist/tex/generic/etexcmds/etexcmds.sty
INPUT /usr/share/texmf-dist/tex/generic/etexcmds/etexcmds.sty
INPUT /usr/share/texmf-dist/tex/generic/etexcmds/etexcmds.sty
INPUT /usr/share/texmf-dist/tex/generic/etexcmds/etexcmds.sty
INPUT /usr/share/texmf-dist/tex/latex/hyperref/puenc.def
INPUT /usr/share/texmf-dist/tex/latex/hyperref/puenc.def
INPUT /usr/share/texmf-dist/tex/latex/hyperref/puenc.def
INPUT /usr/share/texmf-dist/tex/latex/hyperref/puenc.def
INPUT /usr/share/texmf-dist/tex/latex/url/url.sty
INPUT /usr/share/texmf-dist/tex/latex/url/url.sty
INPUT /usr/share/texmf-dist/tex/latex/url/url.sty
INPUT /usr/share/texmf-dist/tex/latex/url/url.sty
INPUT /usr/share/texmf-dist/tex/latex/url/url.sty
INPUT /usr/share/texmf-dist/tex/latex/url/url.sty
INPUT /usr/share/texmf-dist/tex/latex/url/url.sty
INPUT /usr/share/texmf-dist/tex/latex/url/url.sty
INPUT /usr/share/texmf-dist/tex/latex/url/url.sty
INPUT /usr/share/texmf-dist/tex/latex/url/url.sty
INPUT /usr/share/texmf-dist/tex/generic/bitset/bitset.sty
INPUT /usr/share/texmf-dist/tex/generic/bitset/bitset.sty
INPUT /usr/share/texmf-dist/tex/generic/bitset/bitset.sty
INPUT /usr/share/texmf-dist/tex/generic/bitset/bitset.sty
INPUT /usr/share/texmf-dist/tex/generic/bitset/bitset.sty
INPUT /usr/share/texmf-dist/tex/generic/bitset/bitset.sty
INPUT /usr/share/texmf-dist/tex/generic/bitset/bitset.sty
INPUT /usr/share/texmf-dist/tex/generic/bitset/bitset.sty
INPUT /usr/share/texmf-dist/tex/generic/bitset/bitset.sty
INPUT /usr/share/texmf-dist/tex/generic/bitset/bitset.sty
INPUT /usr/share/texmf-dist/tex/generic/bigintcalc/bigintcalc.sty
INPUT /usr/share/texmf-dist/tex/generic/bigintcalc/bigintcalc.sty
INPUT /usr/share/texmf-dist/tex/generic/bigintcalc/bigintcalc.sty
INPUT /usr/share/texmf-dist/tex/generic/bigintcalc/bigintcalc.sty
INPUT /usr/share/texmf-dist/tex/generic/bigintcalc/bigintcalc.sty
INPUT /usr/share/texmf-dist/tex/generic/bigintcalc/bigintcalc.sty
INPUT /usr/share/texmf-dist/tex/generic/bigintcalc/bigintcalc.sty
INPUT /usr/share/texmf-dist/tex/generic/bigintcalc/bigintcalc.sty
INPUT /usr/share/texmf-dist/tex/generic/bigintcalc/bigintcalc.sty
INPUT /usr/share/texmf-dist/tex/generic/bigintcalc/bigintcalc.sty
INPUT /usr/share/texmf-dist/tex/generic/atbegshi/atbegshi.sty
INPUT /usr/share/texmf-dist/tex/generic/atbegshi/atbegshi.sty
INPUT /usr/share/texmf-dist/tex/latex/base/atbegshi-ltx.sty
INPUT /usr/share/texmf-dist/tex/generic/atbegshi/atbegshi.sty
INPUT /usr/share/texmf-dist/tex/generic/atbegshi/atbegshi.sty
INPUT /usr/share/texmf-dist/tex/latex/base/atbegshi-ltx.sty
INPUT /usr/share/texmf-dist/tex/generic/atbegshi/atbegshi.sty
INPUT /usr/share/texmf-dist/tex/latex/base/atbegshi-ltx.sty
INPUT /usr/share/texmf-dist/tex/latex/base/atbegshi-ltx.sty
INPUT /usr/share/texmf-dist/tex/generic/atbegshi/atbegshi.sty
INPUT /usr/share/texmf-dist/tex/generic/atbegshi/atbegshi.sty
INPUT /usr/share/texmf-dist/tex/latex/base/atbegshi-ltx.sty
INPUT /usr/share/texmf-dist/tex/latex/base/atbegshi-ltx.sty
INPUT /usr/share/texmf-dist/tex/generic/atbegshi/atbegshi.sty
INPUT /usr/share/texmf-dist/tex/latex/base/atbegshi-ltx.sty
INPUT /usr/share/texmf-dist/tex/latex/hyperref/hpdftex.def
INPUT /usr/share/texmf-dist/tex/latex/hyperref/hpdftex.def
INPUT /usr/share/texmf-dist/tex/latex/hyperref/hpdftex.def
INPUT /usr/share/texmf-dist/tex/latex/hyperref/hpdftex.def
INPUT /usr/share/texmf-dist/tex/latex/atveryend/atveryend.sty
INPUT /usr/share/texmf-dist/tex/latex/atveryend/atveryend.sty
INPUT /usr/share/texmf-dist/tex/latex/base/atveryend-ltx.sty
INPUT /usr/share/texmf-dist/tex/latex/atveryend/atveryend.sty
INPUT /usr/share/texmf-dist/tex/latex/atveryend/atveryend.sty
INPUT /usr/share/texmf-dist/tex/latex/base/atveryend-ltx.sty
INPUT /usr/share/texmf-dist/tex/latex/atveryend/atveryend.sty
INPUT /usr/share/texmf-dist/tex/latex/base/atveryend-ltx.sty
INPUT /usr/share/texmf-dist/tex/latex/base/atveryend-ltx.sty
INPUT /usr/share/texmf-dist/tex/latex/atveryend/atveryend.sty
INPUT /usr/share/texmf-dist/tex/latex/atveryend/atveryend.sty
INPUT /usr/share/texmf-dist/tex/latex/base/atveryend-ltx.sty
INPUT /usr/share/texmf-dist/tex/latex/base/atveryend-ltx.sty
INPUT /usr/share/texmf-dist/tex/latex/atveryend/atveryend.sty
INPUT /usr/share/texmf-dist/tex/latex/base/atveryend-ltx.sty
INPUT /usr/share/texmf-dist/tex/latex/rerunfilecheck/rerunfilecheck.sty
INPUT /usr/share/texmf-dist/tex/latex/rerunfilecheck/rerunfilecheck.sty
INPUT /usr/share/texmf-dist/tex/latex/rerunfilecheck/rerunfilecheck.sty
INPUT /usr/share/texmf-dist/tex/latex/rerunfilecheck/rerunfilecheck.sty
INPUT /usr/share/texmf-dist/tex/latex/rerunfilecheck/rerunfilecheck.sty
INPUT /usr/share/texmf-dist/tex/latex/rerunfilecheck/rerunfilecheck.sty
INPUT /usr/share/texmf-dist/tex/latex/rerunfilecheck/rerunfilecheck.sty
INPUT /usr/share/texmf-dist/tex/latex/rerunfilecheck/rerunfilecheck.sty
INPUT /usr/share/texmf-dist/tex/latex/rerunfilecheck/rerunfilecheck.sty
INPUT /usr/share/texmf-dist/tex/latex/rerunfilecheck/rerunfilecheck.sty
INPUT /usr/share/texmf-dist/tex/generic/uniquecounter/uniquecounter.sty
INPUT /usr/share/texmf-dist/tex/generic/uniquecounter/uniquecounter.sty
INPUT /usr/share/texmf-dist/tex/generic/uniquecounter/uniquecounter.sty
INPUT /usr/share/texmf-dist/tex/generic/uniquecounter/uniquecounter.sty
INPUT /usr/share/texmf-dist/tex/generic/uniquecounter/uniquecounter.sty
INPUT /usr/share/texmf-dist/tex/generic/uniquecounter/uniquecounter.sty
INPUT /usr/share/texmf-dist/tex/generic/uniquecounter/uniquecounter.sty
INPUT /usr/share/texmf-dist/tex/generic/uniquecounter/uniquecounter.sty
INPUT /usr/share/texmf-dist/tex/generic/uniquecounter/uniquecounter.sty
INPUT /usr/share/texmf-dist/tex/generic/uniquecounter/uniquecounter.sty
INPUT /usr/share/texmf-dist/tex/latex/amsfonts/amsfonts.sty
INPUT /usr/share/texmf-dist/tex/latex/amsfonts/amsfonts.sty
INPUT /usr/share/texmf-dist/tex/latex/amsfonts/amsfonts.sty
INPUT /usr/share/texmf-dist/tex/latex/amsfonts/amsfonts.sty
INPUT /usr/share/texmf-dist/tex/latex/amsfonts/amsfonts.sty
INPUT /usr/share/texmf-dist/tex/latex/amsfonts/amsfonts.sty
INPUT /usr/share/texmf-dist/tex/latex/amsfonts/amsfonts.sty
INPUT /usr/share/texmf-dist/tex/latex/amsfonts/amsfonts.sty
INPUT /usr/share/texmf-dist/tex/latex/amsfonts/amsfonts.sty
INPUT /usr/share/texmf-dist/tex/latex/amsfonts/amsfonts.sty
INPUT /usr/share/texmf-dist/tex/latex/amsmath/amsmath.sty
INPUT /usr/share/texmf-dist/tex/latex/amsmath/amsmath.sty
INPUT /usr/share/texmf-dist/tex/latex/amsmath/amsmath.sty
INPUT /usr/share/texmf-dist/tex/latex/amsmath/amsmath.sty
INPUT /usr/share/texmf-dist/tex/latex/amsmath/amsmath.sty
INPUT /usr/share/texmf-dist/tex/latex/amsmath/amsmath.sty
INPUT /usr/share/texmf-dist/tex/latex/amsmath/amsmath.sty
INPUT /usr/share/texmf-dist/tex/latex/amsmath/amsmath.sty
INPUT /usr/share/texmf-dist/tex/latex/amsmath/amsmath.sty
INPUT /usr/share/texmf-dist/tex/latex/amsmath/amsmath.sty
INPUT /usr/share/texmf-dist/tex/latex/amsmath/amsopn.sty
INPUT /usr/share/texmf-dist/tex/latex/amsmath/amsopn.sty
INPUT /usr/share/texmf-dist/tex/latex/amsmath/amstext.sty
INPUT /usr/share/texmf-dist/tex/latex/amsmath/amstext.sty
INPUT /usr/share/texmf-dist/tex/latex/amsmath/amstext.sty
INPUT /usr/share/texmf-dist/tex/latex/amsmath/amstext.sty
INPUT /usr/share/texmf-dist/tex/latex/amsmath/amstext.sty
INPUT /usr/share/texmf-dist/tex/latex/amsmath/amstext.sty
INPUT /usr/share/texmf-dist/tex/latex/amsmath/amstext.sty
INPUT /usr/share/texmf-dist/tex/latex/amsmath/amstext.sty
INPUT /usr/share/texmf-dist/tex/latex/amsmath/amstext.sty
INPUT /usr/share/texmf-dist/tex/latex/amsmath/amstext.sty
INPUT /usr/share/texmf-dist/tex/latex/amsmath/amsgen.sty
INPUT /usr/share/texmf-dist/tex/latex/amsmath/amsgen.sty
INPUT /usr/share/texmf-dist/tex/latex/amsmath/amsgen.sty
INPUT /usr/share/texmf-dist/tex/latex/amsmath/amsgen.sty
INPUT /usr/share/texmf-dist/tex/latex/amsmath/amsgen.sty
INPUT /usr/share/texmf-dist/tex/latex/amsmath/amsgen.sty
INPUT /usr/share/texmf-dist/tex/latex/amsmath/amsgen.sty
INPUT /usr/share/texmf-dist/tex/latex/amsmath/amsgen.sty
INPUT /usr/share/texmf-dist/tex/latex/amsmath/amsgen.sty
INPUT /usr/share/texmf-dist/tex/latex/amsmath/amsgen.sty
INPUT /usr/share/texmf-dist/tex/latex/amsmath/amsbsy.sty
INPUT /usr/share/texmf-dist/tex/latex/amsmath/amsbsy.sty
INPUT /usr/share/texmf-dist/tex/latex/amsmath/amsbsy.sty
INPUT /usr/share/texmf-dist/tex/latex/amsmath/amsbsy.sty
INPUT /usr/share/texmf-dist/tex/latex/amsmath/amsbsy.sty
INPUT /usr/share/texmf-dist/tex/latex/amsmath/amsbsy.sty
INPUT /usr/share/texmf-dist/tex/latex/amsmath/amsbsy.sty
INPUT /usr/share/texmf-dist/tex/latex/amsmath/amsbsy.sty
INPUT /usr/share/texmf-dist/tex/latex/amsmath/amsbsy.sty
INPUT /usr/share/texmf-dist/tex/latex/amsmath/amsbsy.sty
INPUT /usr/share/texmf-dist/tex/latex/amsmath/amsopn.sty
INPUT /usr/share/texmf-dist/tex/latex/amsmath/amsopn.sty
INPUT /usr/share/texmf-dist/tex/latex/amsmath/amsopn.sty
INPUT /usr/share/texmf-dist/tex/latex/amsmath/amsopn.sty
INPUT /usr/share/texmf-dist/tex/latex/amsmath/amsopn.sty
INPUT /usr/share/texmf-dist/tex/latex/amsmath/amsopn.sty
INPUT /usr/share/texmf-dist/tex/latex/amsmath/amsopn.sty
INPUT /usr/share/texmf-dist/tex/latex/amsmath/amsopn.sty
INPUT /usr/share/texmf-dist/tex/latex/amsmath/amsopn.sty
INPUT /usr/share/texmf-dist/tex/latex/amsmath/amsopn.sty
INPUT /usr/share/texmf-dist/tex/latex/listings/listings.sty
INPUT /usr/share/texmf-dist/tex/latex/listings/listings.sty
INPUT /usr/share/texmf-dist/tex/latex/listings/listings.sty
INPUT /usr/share/texmf-dist/tex/latex/listings/listings.sty
INPUT /usr/share/texmf-dist/tex/latex/listings/listings.sty
INPUT /usr/share/texmf-dist/tex/latex/listings/listings.sty
INPUT /usr/share/texmf-dist/tex/latex/listings/listings.sty
INPUT /usr/share/texmf-dist/tex/latex/listings/listings.sty
INPUT /usr/share/texmf-dist/tex/latex/listings/listings.sty
INPUT /usr/share/texmf-dist/tex/latex/listings/listings.sty
INPUT /usr/share/texmf-dist/tex/latex/listings/lstmisc.sty
INPUT /usr/share/texmf-dist/tex/latex/listings/lstmisc.sty
INPUT /usr/share/texmf-dist/tex/latex/listings/lstmisc.sty
INPUT /usr/share/texmf-dist/tex/latex/listings/lstmisc.sty
INPUT /usr/share/texmf-dist/tex/latex/listings/listings.cfg
INPUT /usr/share/texmf-dist/tex/latex/listings/listings.cfg
INPUT /usr/share/texmf-dist/tex/latex/listings/listings.cfg
INPUT /usr/share/texmf-dist/tex/latex/listings/listings.cfg
INPUT /usr/share/texmf-dist/tex/latex/l3backend/l3backend-pdftex.def
INPUT /usr/share/texmf-dist/tex/latex/l3backend/l3backend-pdftex.def
INPUT /usr/share/texmf-dist/tex/latex/l3backend/l3backend-pdftex.def
INPUT /usr/share/texmf-dist/tex/latex/l3backend/l3backend-pdftex.def
INPUT /usr/share/texmf-dist/tex/latex/l3backend/l3backend-pdftex.def
INPUT /usr/share/texmf-dist/tex/latex/l3backend/l3backend-pdftex.def
INPUT /usr/share/texmf-dist/tex/latex/l3backend/l3backend-pdftex.def
INPUT /usr/share/texmf-dist/tex/latex/l3backend/l3backend-pdftex.def
INPUT /usr/share/texmf-dist/tex/latex/l3backend/l3backend-pdftex.def
INPUT /usr/share/texmf-dist/tex/latex/l3backend/l3backend-pdftex.def
INPUT /home/makar/repos/gramauto/slide39_post.aux
INPUT /home/makar/repos/gramauto/slide39_post.aux
INPUT /home/makar/repos/gramauto/slide39_post.aux
OUTPUT /home/makar/repos/gramauto/slide39_post.aux
INPUT /usr/share/texmf-dist/tex/context/base/mkii/supp-pdf.mkii
INPUT /usr/share/texmf-dist/tex/context/base/mkii/supp-pdf.mkii
INPUT /usr/share/texmf-dist/tex/context/base/mkii/supp-pdf.mkii
INPUT /usr/share/texmf-dist/tex/context/base/mkii/supp-pdf.mkii
INPUT /usr/share/texmf-dist/tex/latex/hyperref/nameref.sty
INPUT /usr/share/texmf-dist/tex/latex/hyperref/nameref.sty
INPUT /usr/share/texmf-dist/tex/latex/hyperref/nameref.sty
INPUT /usr/share/texmf-dist/tex/latex/hyperref/nameref.sty
INPUT /usr/share/texmf-dist/tex/latex/hyperref/nameref.sty
INPUT /usr/share/texmf-dist/tex/latex/hyperref/nameref.sty
INPUT /usr/share/texmf-dist/tex/latex/hyperref/nameref.sty
INPUT /usr/share/texmf-dist/tex/latex/hyperref/nameref.sty
INPUT /usr/share/texmf-dist/tex/latex/hyperref/nameref.sty
INPUT /usr/share/texmf-dist/tex/latex/hyperref/nameref.sty
INPUT /usr/share/texmf-dist/tex/latex/refcount/refcount.sty
INPUT /usr/share/texmf-dist/tex/latex/refcount/refcount.sty
INPUT /usr/share/texmf-dist/tex/latex/refcount/refcount.sty
INPUT /usr/share/texmf-dist/tex/latex/refcount/refcount.sty
INPUT /usr/share/texmf-dist/tex/latex/refcount/refcount.sty
INPUT /usr/share/texmf-dist/tex/latex/refcount/refcount.sty
INPUT /usr/share/texmf-dist/tex/latex/refcount/refcount.sty
INPUT /usr/share/texmf-dist/tex/latex/refcount/refcount.sty
INPUT /usr/share/texmf-dist/tex/latex/refcount/refcount.sty
INPUT /usr/share/texmf-dist/tex/latex/refcount/refcount.sty
INPUT /usr/share/texmf-dist/tex/generic/gettitlestring/gettitlestring.sty
INPUT /usr/share/texmf-dist/tex/generic/gettitlestring/gettitlestring.sty
INPUT /usr/share/texmf-dist/tex/generic/gettitlestring/gettitlestring.sty
INPUT /usr/share/texmf-dist/tex/generic/gettitlestring/gettitlestring.sty
INPUT /usr/share/texmf-dist/tex/generic/gettitlestring/gettitlestring.sty
INPUT /usr/share/texmf-dist/tex/generic/gettitlestring/gettitlestring.sty
INPUT /usr/share/texmf-dist/tex/generic/gettitlestring/gettitlestring.sty
INPUT /usr/share/texmf-dist/tex/generic/gettitlestring/gettitlestring.sty
INPUT /usr/share/texmf-dist/tex/generic/gettitlestring/gettitlestring.sty
INPUT /usr/share/texmf-dist/tex/generic/gettitlestring/gettitlestring.sty
OUTPUT /home/makar/repos/gramauto/slide39_post.out
OUTPUT /home/makar/repos/gramauto/slide39_post.pdf
INPUT /home/makar/.texlive/texmf-var/fonts/tfm/lh/lh-t2a/larm1440.tfm
INPUT /home/makar/.texlive/texmf-var/fonts/tfm/lh/lh-t2a/labx1440.tfm
INPUT /home/makar/.texlive/texmf-var/fonts/tfm/lh/lh-t2a/larm1200.tfm
INPUT /home/makar/.texlive/texmf-var/fonts/tfm/lh/lh-t2a/labx1200.tfm
INPUT /usr/share/texmf-dist/fonts/tfm/public/amsfonts/cmextra/cmex7.tfm
INPUT /usr/share/texmf-dist/fonts/tfm/public/amsfonts/cmextra/cmex7.tfm
INPUT /usr/share/texmf-dist/tex/latex/amsfonts/umsa.fd
INPUT /usr/share/texmf-dist/tex/latex/amsfonts/umsa.fd
INPUT /usr/share/texmf-dist/tex/latex/amsfonts/umsa.fd
INPUT /usr/share/texmf-dist/tex/latex/amsfonts/umsa.fd
INPUT /usr/share/texmf-dist/fonts/tfm/public/amsfonts/symbols/msam10.tfm
INPUT /usr/share/texmf-dist/fonts/tfm/public/amsfonts/symbols/msam7.tfm
INPUT /usr/share/texmf-dist/fonts/tfm/public/amsfonts/symbols/msam5.tfm
INPUT /usr/share/texmf-dist/tex/latex/amsfonts/umsb.fd
INPUT /usr/share/texmf-dist/tex/latex/amsfonts/umsb.fd
INPUT /usr/share/texmf-dist/tex/latex/amsfonts/umsb.fd
INPUT /usr/share/texmf-dist/tex/latex/amsfonts/umsb.fd
INPUT /usr/share/texmf-dist/fonts/tfm/public/amsfonts/symbols/msbm10.tfm
INPUT /usr/share/texmf-dist/fonts/tfm/public/amsfonts/symbols/msbm7.tfm
INPUT /usr/share/texmf-dist/fonts/tfm/public/amsfonts/symbols/msbm5.tfm
INPUT /home/makar/.texlive/texmf-var/fonts/tfm/lh/lh-t2a/labx1000.tfm
INPUT /home/makar/.texlive/texmf-var/fonts/tfm/lh/lh-t2a/lati1000.tfm
INPUT /var/lib/texmf/fonts/map/pdftex/updmap/pdftex.map
INPUT /usr/share/texmf-dist/fonts/tfm/public/cm/cmr12.tfm
INPUT /usr/share/texmf-dist/fonts/tfm/public/cm/cmr8.tfm
INPUT /usr/share/texmf-dist/fonts/tfm/public/cm/cmr6.tfm
INPUT /usr/share/texmf-dist/fonts/tfm/public/cm/cmmi12.tfm
INPUT /usr/share/texmf-dist/fonts/tfm/public/cm/cmmi8.tfm
INPUT /usr/share/texmf-dist/fonts/tfm/public/cm/cmmi6.tfm
INPUT /usr/share/texmf-dist/fonts/tfm/public/cm/cmsy10.tfm
INPUT /usr/share/texmf-dist/fonts/tfm/public/cm/cmsy8.tfm
INPUT /usr/share/texmf-dist/fonts/tfm/public/cm/cmsy6.tfm
INPUT /usr/share/texmf-dist/fonts/tfm/public/cm/cmex10.tfm
INPUT /usr/share/texmf-dist/fonts/tfm/public/amsfonts/cmextra/cmex8.tfm
INPUT /usr/share/texmf-dist/fonts/tfm/public/amsfonts/cmextra/cmex7.tfm
INPUT /usr/share/texmf-dist/fonts/tfm/public/amsfonts/symbols/msam10.tfm
INPUT /usr/share/texmf-dist/fonts/tfm/public/amsfonts/symbols/msam10.tfm
INPUT /usr/share/texmf-dist/fonts/tfm/public/amsfonts/symbols/msam7.tfm
INPUT /usr/share/texmf-dist/fonts/tfm/public/amsfonts/symbols/msbm10.tfm
INPUT /usr/share/texmf-dist/fonts/tfm/public/amsfonts/symbols/msbm10.tfm
INPUT /usr/share/texmf-dist/fonts/tfm/public/amsfonts/symbols/msbm7.tfm
INPUT /home/makar/repos/gramauto/slide39_post.aux
INPUT /home/makar/repos/gramauto/slide39_post.out
INPUT /home/makar/repos/gramauto/slide39_post.out
INPUT /usr/share/texmf-dist/fonts/enc/dvips/cm-super/cm-super-t2a.enc
INPUT /usr/share/texmf-dist/fonts/type1/public/amsfonts/cm/cmex10.pfb
INPUT /usr/share/texmf-dist/fonts/type1/public/amsfonts/cm/cmmi10.pfb
INPUT /usr/share/texmf-dist/fonts/type1/public/amsfonts/cm/cmmi12.pfb
INPUT /usr/share/texmf-dist/fonts/type1/public/amsfonts/cm/cmmi7.pfb
INPUT /usr/share/texmf-dist/fonts/type1/public/amsfonts/cm/cmr10.pfb
INPUT /usr/share/texmf-dist/fonts/type1/public/amsfonts/cm/cmr7.pfb
INPUT /usr/share/texmf-dist/fonts/type1/public/amsfonts/cm/cmsy10.pfb
INPUT /usr/share/texmf-dist/fonts/type1/public/amsfonts/cm/cmsy7.pfb
INPUT /usr/share/texmf-dist/fonts/type1/public/cm-super/sfbx1000.pfb
INPUT /usr/share/texmf-dist/fonts/type1/public/cm-super/sfbx1200.pfb
INPUT /usr/share/texmf-dist/fonts/type1/public/cm-super/sfbx1440.pfb
INPUT /usr/share/texmf-dist/fonts/type1/public/cm-super/sfrm1000.pfb
INPUT /usr/share/texmf-dist/fonts/type1/public/cm-super/sfti1000.pfb
